<?xml version="1.0" encoding="utf-8"?>
<!-- Generator: Adobe Illustrator 19.0.0, SVG Export Plug-In . SVG Version: 6.00 Build 0)  -->
<svg version="1.1" id="Capa_1" xmlns="http://www.w3.org/2000/svg" xmlns:xlink="http://www.w3.org/1999/xlink" x="0px" y="0px"
	 viewBox="194 -193.2 487.2 487.2" style="enable-background:new 194 -193.2 487.2 487.2;" xml:space="preserve">
<style type="text/css">
	.st0{fill:#2897C4;}
</style>
<g>
	<path class="st0" d="M645.3,1.8c-1.4-4.2-5-7.2-9.3-7.9L506-24.5l-58.5-117.6c-2-3.9-6-6.4-10.3-6.4l0,0c-4.4,0-8.4,2.5-10.3,6.5
		L369.2-24.1l-130,19.3c-4.4,0.7-8,3.7-9.3,7.9s-0.2,8.8,3,11.8l94.3,91.4l-21.8,129.4c-0.8,4.4,1,8.7,4.6,11.3
		c2,1.5,4.4,2.2,6.8,2.2c1.9,0,3.7-0.4,5.4-1.4l116-61.5l116.4,60.8c1.7,0.9,3.5,1.3,5.3,1.3l0,0c6.3,0,11.5-5.2,11.5-11.5
		c0-0.9-0.1-1.8-0.3-2.7l-22.5-128.7l93.7-91.9C645.6,10.6,646.7,6,645.3,1.8z M528.2,93.4c-2.7,2.7-3.9,6.5-3.2,10.3l19.6,112.3
		l-101.1-52.7c-3.3-1.8-7.4-1.7-10.8,0L332,216.5l18.9-112.4c0.6-3.8-0.6-7.5-3.3-10.2l-81.7-79.3L378.6-2.2c3.8-0.6,7-2.9,8.6-6.3
		l50.1-102.3L488.1-8.8c1.7,3.4,5,5.7,8.7,6.3l112.9,16.1L528.2,93.4z"/>
</g>
</svg>
