<?xml version="1.0" encoding="utf-8"?>
<!-- Generator: Adobe Illustrator 19.0.0, SVG Export Plug-In . SVG Version: 6.00 Build 0)  -->
<svg version="1.1" id="Capa_1" xmlns="http://www.w3.org/2000/svg" xmlns:xlink="http://www.w3.org/1999/xlink" x="0px" y="0px"
	 viewBox="-175 166.7 60 60" style="enable-background:new -175 166.7 60 60;" xml:space="preserve">
<g>
	<path d="M-144.5,206.7c-1.2,0-2.1,0.9-2.1,2.1c0,1.2,0.9,2.1,2.1,2.1c1.2,0,2.1-0.9,2.1-2.1C-142.4,207.7-143.4,206.7-144.5,206.7z
		 M-144.5,209.9c-0.6,0-1.1-0.5-1.1-1.1c0-0.6,0.5-1.1,1.1-1.1s1.1,0.5,1.1,1.1C-143.5,209.4-143.9,209.9-144.5,209.9z"/>
	<path d="M-146.1,183.5h2.1c0.3,0,0.5-0.2,0.5-0.5s-0.2-0.5-0.5-0.5h-2.1c-0.3,0-0.5,0.2-0.5,0.5S-146.4,183.5-146.1,183.5z"/>
	<path d="M-142.4,183.5h0.5c0.3,0,0.5-0.2,0.5-0.5s-0.2-0.5-0.5-0.5h-0.5c-0.3,0-0.5,0.2-0.5,0.5S-142.7,183.5-142.4,183.5z"/>
	<path d="M-157.6,187.9l-0.1-0.5c-0.1-0.3-0.4-0.4-0.6-0.4c-0.3,0.1-0.4,0.4-0.4,0.6l0.1,0.5c0.1,0.2,0.3,0.4,0.5,0.4
		c0,0,0.1,0,0.1,0C-157.7,188.5-157.5,188.2-157.6,187.9z"/>
	<path d="M-158.7,186.1c0.3,0,0.5-0.3,0.5-0.6c0,0,0-0.1,0-0.1c0-0.1,0-0.2,0-0.2c0.1-0.3-0.1-0.6-0.4-0.6c-0.3-0.1-0.6,0.1-0.6,0.4
		c0,0.1,0,0.3,0,0.4c0,0.1,0,0.2,0,0.2C-159.3,185.9-159,186.1-158.7,186.1C-158.7,186.1-158.7,186.1-158.7,186.1z"/>
	<path d="M-156.3,192.9l-0.1-0.5c-0.1-0.3-0.4-0.5-0.6-0.4c-0.3,0.1-0.4,0.4-0.4,0.6l0.1,0.5c0.1,0.2,0.3,0.4,0.5,0.4
		c0,0,0.1,0,0.1,0C-156.4,193.5-156.2,193.2-156.3,192.9z"/>
	<path d="M-153.6,202.9l-0.1-0.5c-0.1-0.3-0.4-0.5-0.6-0.4c-0.3,0.1-0.4,0.4-0.4,0.6l0.1,0.5c0.1,0.2,0.3,0.4,0.5,0.4
		c0,0,0.1,0,0.1,0C-153.7,203.4-153.5,203.2-153.6,202.9z"/>
	<path d="M-156.9,190.4l-0.1-0.5c-0.1-0.3-0.4-0.5-0.6-0.4c-0.3,0.1-0.4,0.4-0.4,0.6l0.1,0.5c0.1,0.2,0.3,0.4,0.5,0.4
		c0,0,0.1,0,0.1,0C-157,191-156.9,190.7-156.9,190.4z"/>
	<path d="M-157.4,184.2c0,0,0.1,0,0.1,0l0.5-0.1c0.3-0.1,0.4-0.4,0.4-0.6c-0.1-0.3-0.4-0.5-0.6-0.4l-0.5,0.1
		c-0.3,0.1-0.4,0.4-0.4,0.6C-157.8,184-157.6,184.2-157.4,184.2z"/>
	<path d="M-154.9,183.5c0,0,0.1,0,0.1,0l0.5-0.1c0.3-0.1,0.4-0.4,0.4-0.6c-0.1-0.3-0.4-0.5-0.6-0.4l-0.5,0.1
		c-0.3,0.1-0.4,0.4-0.4,0.6C-155.3,183.4-155.1,183.5-154.9,183.5z"/>
	<path d="M-154.3,200.4l-0.1-0.5c-0.1-0.3-0.4-0.4-0.6-0.4c-0.3,0.1-0.4,0.4-0.4,0.6l0.1,0.5c0.1,0.2,0.3,0.4,0.5,0.4
		c0,0,0.1,0,0.1,0C-154.4,201-154.2,200.7-154.3,200.4z"/>
	<path d="M-155.6,195.4l-0.1-0.5c-0.1-0.3-0.4-0.4-0.6-0.4c-0.3,0.1-0.4,0.4-0.4,0.6l0.1,0.5c0.1,0.2,0.3,0.4,0.5,0.4
		c0,0,0.1,0,0.1,0C-155.7,196-155.5,195.7-155.6,195.4z"/>
	<path d="M-154.9,197.9l-0.1-0.5c-0.1-0.3-0.4-0.5-0.6-0.4c-0.3,0.1-0.4,0.4-0.4,0.6l0.1,0.5c0.1,0.2,0.3,0.4,0.5,0.4
		c0,0,0.1,0,0.1,0C-155,198.5-154.9,198.2-154.9,197.9z"/>
	<path d="M-130.3,189.6c-0.3-0.1-0.6,0.1-0.6,0.4l-0.1,0.5c-0.1,0.3,0.1,0.6,0.4,0.6c0,0,0.1,0,0.1,0c0.2,0,0.4-0.2,0.5-0.4l0.1-0.5
		C-129.8,189.9-130,189.6-130.3,189.6z"/>
	<path d="M-129.6,187.1c-0.3-0.1-0.6,0.1-0.6,0.4l-0.1,0.5c-0.1,0.3,0.1,0.6,0.4,0.6c0,0,0.1,0,0.1,0c0.2,0,0.4-0.2,0.5-0.4l0.1-0.5
		C-129.2,187.4-129.3,187.1-129.6,187.1z"/>
	<path d="M-128.7,185c-0.1-0.3-0.3-0.5-0.6-0.4c-0.3,0.1-0.5,0.3-0.4,0.6c0,0.1,0,0.2,0,0.2c0,0,0,0.1,0,0.1c0,0.3,0.2,0.5,0.5,0.6
		c0,0,0,0,0.1,0c0.3,0,0.5-0.2,0.5-0.5c0-0.1,0-0.2,0-0.2C-128.7,185.3-128.7,185.1-128.7,185z"/>
	<path d="M-133.7,183.4l0.5,0.1c0,0,0.1,0,0.1,0c0.2,0,0.4-0.2,0.5-0.4c0.1-0.3-0.1-0.6-0.4-0.6l-0.5-0.1c-0.3-0.1-0.6,0.1-0.6,0.4
		C-134.2,183-134,183.3-133.7,183.4z"/>
	<path d="M-131.2,184l0.5,0.1c0,0,0.1,0,0.1,0c0.2,0,0.4-0.2,0.5-0.4c0.1-0.3-0.1-0.6-0.4-0.6l-0.5-0.1c-0.3-0.1-0.6,0.1-0.6,0.4
		C-131.7,183.7-131.5,184-131.2,184z"/>
	<path d="M-131,192c-0.3-0.1-0.6,0.1-0.6,0.4l-0.1,0.5c-0.1,0.3,0.1,0.6,0.4,0.6c0,0,0.1,0,0.1,0c0.2,0,0.4-0.2,0.5-0.4l0.1-0.5
		C-130.5,192.4-130.7,192.1-131,192z"/>
	<path d="M-134.3,204.5c-0.3-0.1-0.6,0.1-0.6,0.4l-0.1,0.4v-0.1c0,0,0,0,0,0v-2c0,0,0,0,0,0v-0.5c0,0,0,0,0,0v-2c0,0,0,0,0,0V200
		c0,0,0,0,0,0v-2c0,0,0,0,0,0v-0.5c0,0,0,0,0,0v-2c0,0,0,0,0,0v-0.5c0,0,0,0,0,0v-2c0,0,0,0,0,0v-0.5c0,0,0,0,0,0v-2c0,0,0,0,0,0
		v-0.5c0,0,0,0,0,0v-2c0,0,0,0,0,0v-0.5c0,0,0,0,0,0v-2c0,0,0,0,0,0v-0.5c0,0,0,0,0,0v-1.3c0-1.3-1-2.3-2.3-2.3h-13.3
		c-1.3,0-2.3,1-2.3,2.3v1.3v0v0.5v0v2.1v0v0.5v0v2.1v0v0.5v0v2.1v0v0.5v0v2.1v0v0.5v0v2.1v0v0.5v0v2.1v0v0.5v0v2.1v0v0.5v0v2.1v0
		v0.1l-0.1-0.4c-0.1-0.3-0.4-0.5-0.6-0.4c-0.3,0.1-0.4,0.4-0.4,0.6l0.1,0.5c0.1,0.3,0.4,0.4,0.6,0.4c0.2,0,0.3-0.2,0.3-0.3v1.3
		c0,0-0.1,0-0.1,0c-0.3,0.1-0.4,0.4-0.4,0.6l0.1,0.5c0,0.2,0.2,0.3,0.3,0.4v1.7c0,1.3,1,2.3,2.3,2.3h13.3c1.3,0,2.3-1,2.3-2.3v-1.7
		c0.2-0.1,0.3-0.2,0.3-0.4l0.1-0.5c0.1-0.3-0.1-0.6-0.4-0.6c0,0-0.1,0-0.1,0v-1.2c0,0,0,0,0,0c0.1,0.1,0.2,0.2,0.3,0.3
		c0.3,0.1,0.6-0.1,0.6-0.4l0.1-0.5C-133.8,204.9-134,204.6-134.3,204.5z M-151.9,185.1h15.8v20h-15.8
		C-151.9,205.2-151.9,185.1-151.9,185.1z M-150.6,182h13.3c0.7,0,1.3,0.6,1.3,1.3v0.8h-15.8v-0.8C-151.9,182.5-151.3,182-150.6,182z
		 M-137.4,211.5h-13.3c-0.7,0-1.3-0.6-1.3-1.3v-4h15.8v4C-136.1,210.9-136.7,211.5-137.4,211.5z"/>
	<path d="M-133,199.5c-0.3-0.1-0.6,0.1-0.6,0.4l-0.1,0.5c-0.1,0.3,0.1,0.6,0.4,0.6c0,0,0.1,0,0.1,0c0.2,0,0.4-0.2,0.5-0.4l0.1-0.5
		C-132.5,199.9-132.7,199.6-133,199.5z"/>
	<path d="M-133.6,202c-0.3-0.1-0.6,0.1-0.6,0.4l-0.1,0.5c-0.1,0.3,0.1,0.6,0.4,0.6c0,0,0.1,0,0.1,0c0.2,0,0.4-0.2,0.5-0.4l0.1-0.5
		C-133.2,202.4-133.3,202.1-133.6,202z"/>
	<path d="M-132.3,197c-0.3-0.1-0.6,0.1-0.6,0.4l-0.1,0.5c-0.1,0.3,0.1,0.6,0.4,0.6c0,0,0.1,0,0.1,0c0.2,0,0.4-0.2,0.5-0.4l0.1-0.5
		C-131.8,197.4-132,197.1-132.3,197z"/>
	<path d="M-131.6,194.5c-0.3-0.1-0.6,0.1-0.6,0.4l-0.1,0.5c-0.1,0.3,0.1,0.6,0.4,0.6c0,0,0.1,0,0.1,0c0.2,0,0.4-0.2,0.5-0.4l0.1-0.5
		C-131.2,194.9-131.3,194.6-131.6,194.5z"/>
</g>
</svg>
